Basic Data Handling Techniques in R
…
# A tibble: 5 × 6
  country     continent  year lifeExp        pop gdpPercap
  <fct>       <fct>     <int>   <dbl>      <int>     <dbl>
1 Afghanistan Asia       2007    43.8   31889923      975.
2 Bangladesh  Asia       2007    64.1  150448339     1391.
3 India       Asia       2007    64.7 1110396331     2452.
4 Iran        Asia       2007    71.0   69453570    11606.
5 Pakistan    Asia       2007    65.5  169270617     2606.

Filtering data for South Asia countries

gapminderSA<-gapminder %>% filter(country %in% c("Bangladesh","India","Pakistan","Sri Lanka","Nepal", "Afghanistan","Bhutan", "Maldives"))
gapminderSA

# A tibble: 72 × 6
   country     continent  year lifeExp      pop gdpPercap
   <fct>       <fct>     <int>   <dbl>    <int>     <dbl>
 1 Afghanistan Asia       1952    28.8  8425333      779.
 2 Afghanistan Asia       1957    30.3  9240934      821.
 3 Afghanistan Asia       1962    32.0 10267083      853.
 4 Afghanistan Asia       1967    34.0 11537966      836.
 5 Afghanistan Asia       1972    36.1 13079460      740.
 6 Afghanistan Asia       1977    38.4 14880372      786.
 7 Afghanistan Asia       1982    39.9 12881816      978.
 8 Afghanistan Asia       1987    40.8 13867957      852.
 9 Afghanistan Asia       1992    41.7 16317921      649.
10 Afghanistan Asia       1997    41.8 22227415      635.
# … with 62 more rows
# ℹ Use `print(n = ...)` to see more rows

Sort data with arrange()

gapminderSA %>% arrange(gdpPercap)

# A tibble: 72 × 6
   country     continent  year lifeExp       pop gdpPercap
   <fct>       <fct>     <int>   <dbl>     <int>     <dbl>
 1 Nepal       Asia       1952    36.2   9182536      546.
 2 India       Asia       1952    37.4 372000000      547.
 3 India       Asia       1957    40.2 409000000      590.
 4 Nepal       Asia       1957    37.7   9682338      598.
 5 Bangladesh  Asia       1972    45.3  70759295      630.
 6 Afghanistan Asia       1997    41.8  22227415      635.
 7 Afghanistan Asia       1992    41.7  16317921      649.
 8 Nepal       Asia       1962    39.4  10332057      652.
 9 India       Asia       1962    43.6 454000000      658.
10 Bangladesh  Asia       1977    46.9  80428306      660.
# … with 62 more rows
# ℹ Use `print(n = ...)` to see more rows

##

Note that by default arrange() sorts in ascending order. If we want to sort in descending order, we use the function desc().

gapminderSA %>% arrange(desc(gdpPercap))

# A tibble: 72 × 6
   country   continent  year lifeExp        pop gdpPercap
   <fct>     <fct>     <int>   <dbl>      <int>     <dbl>
 1 Sri Lanka Asia       2007    72.4   20378239     3970.
 2 Sri Lanka Asia       2002    70.8   19576783     3015.
 3 Sri Lanka Asia       1997    70.5   18698655     2664.
 4 Pakistan  Asia       2007    65.5  169270617     2606.
 5 India     Asia       2007    64.7 1110396331     2452.
 6 Sri Lanka Asia       1992    70.4   17587060     2154.
 7 Pakistan  Asia       2002    63.6  153403524     2093.
 8 Pakistan  Asia       1997    61.8  135564834     2049.
 9 Pakistan  Asia       1992    60.8  120065004     1972.
10 Sri Lanka Asia       1987    69.0   16495304     1877.
# … with 62 more rows
# ℹ Use `print(n = ...)` to see more rows
…
What was it in 1952?

mutate() to change existing or create new variable

gapminderSA %>% mutate(pop=pop/1000000)

# A tibble: 72 × 6
   country     continent  year lifeExp   pop gdpPercap
   <fct>       <fct>     <int>   <dbl> <dbl>     <dbl>
 1 Afghanistan Asia       1952    28.8  8.43      779.
 2 Afghanistan Asia       1957    30.3  9.24      821.
 3 Afghanistan Asia       1962    32.0 10.3       853.
 4 Afghanistan Asia       1967    34.0 11.5       836.
 5 Afghanistan Asia       1972    36.1 13.1       740.
 6 Afghanistan Asia       1977    38.4 14.9       786.
 7 Afghanistan Asia       1982    39.9 12.9       978.
 8 Afghanistan Asia       1987    40.8 13.9       852.
 9 Afghanistan Asia       1992    41.7 16.3       649.
10 Afghanistan Asia       1997    41.8 22.2       635.
# … with 62 more rows
# ℹ Use `print(n = ...)` to see more rows

If we want to calculate GDP, we need to multiply gdpPercap by pop.

But wait! Didn’t we just change pop so it’s expressed in millions? No: we never stored the results of our previous command, we simply displayed them. Just as I discussed above, unless you overwrite it, the original gapminder dataset will be unchanged. With this in mind, we can create the gdp variable as follows:

gapminderSA %>% mutate(gdp = pop * gdpPercap)

# A tibble: 72 × 7
   country     continent  year lifeExp      pop gdpPercap          gdp
   <fct>       <fct>     <int>   <dbl>    <int>     <dbl>        <dbl>
 1 Afghanistan Asia       1952    28.8  8425333      779.  6567086330.
 2 Afghanistan Asia       1957    30.3  9240934      821.  7585448670.
 3 Afghanistan Asia       1962    32.0 10267083      853.  8758855797.
 4 Afghanistan Asia       1967    34.0 11537966      836.  9648014150.
 5 Afghanistan Asia       1972    36.1 13079460      740.  9678553274.
 6 Afghanistan Asia       1977    38.4 14880372      786. 11697659231.
 7 Afghanistan Asia       1982    39.9 12881816      978. 12598563401.
 8 Afghanistan Asia       1987    40.8 13867957      852. 11820990309.
 9 Afghanistan Asia       1992    41.7 16317921      649. 10595901589.
10 Afghanistan Asia       1997    41.8 22227415      635. 14121995875.
# … with 62 more rows
# ℹ Use `print(n = ...)` to see more rows
…
Ordering

arrange data by life expectancy, we use arrange() function

gapminder %>% 
  select(country, year,lifeExp) %>% 
  filter(year==2007) %>% 
  arrange(lifeExp)

# A tibble: 142 × 3
   country                   year lifeExp
   <fct>                    <int>   <dbl>
 1 Swaziland                 2007    39.6
 2 Mozambique                2007    42.1
 3 Zambia                    2007    42.4
 4 Sierra Leone              2007    42.6
 5 Lesotho                   2007    42.6
 6 Angola                    2007    42.7
 7 Zimbabwe                  2007    43.5
 8 Afghanistan               2007    43.8
 9 Central African Republic  2007    44.7
10 Liberia                   2007    45.7
# … with 132 more rows
# ℹ Use `print(n = ...)` to see more rows

top to bottom, then use arrange(desc()) command as follows:

gapminder %>% 
  select(country, year,lifeExp) %>% 
  filter(year==2007) %>% 
  arrange(desc(lifeExp))

# A tibble: 142 × 3
   country           year lifeExp
   <fct>            <int>   <dbl>
 1 Japan             2007    82.6
 2 Hong Kong, China  2007    82.2
 3 Iceland           2007    81.8
 4 Switzerland       2007    81.7
 5 Australia         2007    81.2
 6 Spain             2007    80.9
 7 Sweden            2007    80.9
 8 Israel            2007    80.7
 9 France            2007    80.7
10 Canada            2007    80.7
# … with 132 more rows
# ℹ Use `print(n = ...)` to see more rows
…
Percentiles

In general it is assumed that higher the GDP , higher the lifeExp. To test this assumption, lets calculate percentiles of lifeExp. This will indicate how many countries have ranking lower than the current country.

gapminder %>% select(country,year, lifeExp, gdpPercap) %>% 
  filter(year == 2007) %>%
  mutate(percentile = ntile(lifeExp, 100)) %>%
  arrange(desc(gdpPercap))

# A tibble: 142 × 5
   country           year lifeExp gdpPercap percentile
   <fct>            <int>   <dbl>     <dbl>      <int>
 1 Norway            2007    80.2    49357.         88
 2 Kuwait            2007    77.6    47307.         68
 3 Singapore         2007    80.0    47143.         87
 4 United States     2007    78.2    42952.         71
 5 Ireland           2007    78.9    40676.         79
 6 Hong Kong, China  2007    82.2    39725.         99
 7 Switzerland       2007    81.7    37506.         97
 8 Netherlands       2007    79.8    36798.         85
 9 Canada            2007    80.7    36319.         91
10 Iceland           2007    81.8    36181.         98
# … with 132 more rows
# ℹ Use `print(n = ...)` to see more rows

One can notice that all countries are well above 60th percentile on lifeExpectancy when arranged by GDP per capita.

Before you conclude, lets see the bottom side

So it makes sense that higher the GDP, higher the lifeExp. This is not formal testing but exploratory data makes lot of sense here.

gapminder %>% select(country,year, lifeExp, gdpPercap) %>% 
  filter(year == 2007) %>%
  mutate(percentile = ntile(lifeExp, 100)) %>%
  arrange(gdpPercap)

# A tibble: 142 × 5
   country                   year lifeExp gdpPercap percentile
   <fct>                    <int>   <dbl>     <dbl>      <int>
 1 Congo, Dem. Rep.          2007    46.5      278.          7
 2 Liberia                   2007    45.7      415.          5
 3 Burundi                   2007    49.6      430.         10
 4 Zimbabwe                  2007    43.5      470.          4
 5 Guinea-Bissau             2007    46.4      579.          6
 6 Niger                     2007    56.9      620.         18
 7 Eritrea                   2007    58.0      641.         19
 8 Ethiopia                  2007    52.9      691.         14
 9 Central African Republic  2007    44.7      706.          5
10 Gambia                    2007    59.4      753.         21
# … with 132 more rows
# ℹ Use `print(n = ...)` to see more rows
…
