Learn basics of R workshop KPRA
…
Always return a data frame

Avoid modify in place

Filter rows with filter()

Select a subset of rows in a data frame.

Easily filter for many conditions at once.

filter()

for crashes in Durham County

## # A tibble: 340 × 65
##     ...1 object_id city   county region   develop…¹ local…² on_road rural…³
##    <dbl>     <dbl> <chr>  <chr>  <chr>    <chr>     <chr>   <chr>   <chr>  
##  1    24      2452 Durham Durham Piedmont Resident… Urban … <NA>    Urban  
##  2    28      2441 Durham Durham Piedmont Commerci… Urban … <NA>    Urban  
##  3    37      2466 Durham Durham Piedmont Commerci… Urban … <NA>    Urban  
##  4    63       549 Durham Durham Piedmont Resident… Urban … PARK A… Urban  
##  5    87       598 Durham Durham Piedmont Resident… Urban … BELT S… Urban  
##  6    90       603 Durham Durham Piedmont Resident… Urban … HINSON… Urban  
##  7   144      3974 Durham Durham Piedmont Commerci… Urban … <NA>    Urban  
##  8   231      7134 Durham Durham Piedmont Commerci… Urban … <NA>    Urban  
##  9   336      1670 Durham Durham Piedmont Commerci… Urban … INFINI… Urban  
## 10   351      1773 Durham Durham Piedmont Resident… Urban … <NA>    Urban  
## # … with 330 more rows, 56 more variables: speed_limit <chr>,
## #   traffic_control <chr>, weather <chr>, workzone <chr>, bike_age <dbl>,
## #   bike_age_group <chr>, bike_alcohol <chr>, bike_alcohol_drugs <chr>,
## #   bike_direction <chr>, bike_injury <chr>, bike_position <chr>,
## #   bike_race <chr>, bike_sex <chr>, driver_age <dbl>,
## #   driver_age_group <chr>, driver_alcohol <chr>,
## #   driver_alcohol_drugs <chr>, driver_est_speed <chr>, …
## # ℹ Use `print(n = ...)` to see more rows, and `colnames()` to see all variable names

filter()

for crashes in Durham County where biker was < 10 yrs old

## # A tibble: 27 × 65
##     ...1 object_id city   county region   develop…¹ local…² on_road rural…³
##    <dbl>     <dbl> <chr>  <chr>  <chr>    <chr>     <chr>   <chr>   <chr>  
##  1    24      2452 Durham Durham Piedmont Resident… Urban … <NA>    Urban  
##  2    63       549 Durham Durham Piedmont Resident… Urban … PARK A… Urban  
##  3   519      2279 Durham Durham Piedmont Resident… Urban … <NA>    Urban  
##  4   827      2431 Durham Durham Piedmont Resident… Urban … <NA>    Urban  
##  5  1072      4611 Durham Durham Piedmont Resident… Urban … <NA>    Urban  
##  6  1147       950 Durham Durham Piedmont Resident… Urban … BERWYN… Urban  
##  7  1767      6773 Durham Durham Piedmont Resident… Urban … <NA>    Urban  
##  8  2429      4106 Durham Durham Piedmont Resident… Urban … <NA>    Urban  
##  9  3337      6485 Durham Durham Piedmont Resident… Mixed … <NA>    Urban  
## 10  3349      6591 Durham Durham Piedmont Resident… Urban … <NA>    Urban  
## # … with 17 more rows, 56 more variables: speed_limit <chr>,
## #   traffic_control <chr>, weather <chr>, workzone <chr>, bike_age <dbl>,
## #   bike_age_group <chr>, bike_alcohol <chr>, bike_alcohol_drugs <chr>,
## #   bike_direction <chr>, bike_injury <chr>, bike_position <chr>,
## #   bike_race <chr>, bike_sex <chr>, driver_age <dbl>,
## #   driver_age_group <chr>, driver_alcohol <chr>,
## #   driver_alcohol_drugs <chr>, driver_est_speed <chr>, …
## # ℹ Use `print(n = ...)` to see more rows, and `colnames()` to see all variable names
…
select() to keep only the variables you mention

##                       hit_run
## crash_location           No  Yes
##   Intersection         2878  352
##   Intersection-Related  369   72
##   Non-Intersection     2876  587
##   Non-Roadway           281   38
##   Unknown Location        3    7

or select()to exclude variables

## # A tibble: 7,467 × 64
##     ...1 city         county region devel…¹ local…² on_road rural…³ speed…⁴
##    <dbl> <chr>        <chr>  <chr>  <chr>   <chr>   <chr>   <chr>   <chr>  
##  1     1 None - Rura… Wayne  Coast… Farms,… Rural … SR 1915 Rural   50 - 5…
##  2     2 Henderson    Vance  Piedm… Reside… Mixed … NICHOL… Urban   30 - 3…
##  3     3 None - Rura… Linco… Piedm… Farms,… Rural … US 321  Rural   50 - 5…
##  4     4 Whiteville   Colum… Coast… Commer… Urban … W BURK… Urban   30 - 3…
##  5     5 Wilmington   New H… Coast… Reside… Urban … RACINE… Urban   <NA>   
##  6     6 None - Rura… Robes… Coast… Farms,… Rural … SR 1513 Rural   50 - 5…
##  7     7 None - Rura… Richm… Piedm… Reside… Mixed … SR 1903 Rural   30 - 3…
##  8     8 Raleigh      Wake   Piedm… Commer… Urban … PERSON… Urban   30 - 3…
##  9     9 Whiteville   Colum… Coast… Reside… Rural … FLOWER… Urban   30 - 3…
## 10    10 New Bern     Craven Coast… Reside… Urban … SUTTON… Urban   20 - 2…
## # … with 7,457 more rows, 55 more variables: traffic_control <chr>,
## #   weather <chr>, workzone <chr>, bike_age <dbl>, bike_age_group <chr>,
## #   bike_alcohol <chr>, bike_alcohol_drugs <chr>, bike_direction <chr>,
## #   bike_injury <chr>, bike_position <chr>, bike_race <chr>,
## #   bike_sex <chr>, driver_age <dbl>, driver_age_group <chr>,
## #   driver_alcohol <chr>, driver_alcohol_drugs <chr>,
## #   driver_est_speed <chr>, driver_injury <chr>, driver_race <chr>, …
## # ℹ Use `print(n = ...)` to see more rows, and `colnames()` to see all variable names
…
