Tax collection data forecasting for next 12 months
…
2.3 Upload data

This data is about monthly tax collection in billion of rupees (data source FBR).I have uploaded data from the respective directory.

Code

library(readxl)
tax_data <- read_excel("Tax_billion_rs.xlsx") #Source FBR 
tax_data

# A tibble: 223 × 7
   Date                  tax direct indirect sales excise custom
   <dttm>              <dbl>  <dbl>    <dbl> <dbl>  <dbl>  <dbl>
 1 2001-12-01 00:00:00  39     20.6     18.3  13.6    3.3    1.4
 2 2002-01-01 00:00:00  32.8   13.4     19.4  12.6    3.4    3.4
 3 2002-02-01 00:00:00  27.6    7.5     20.1  13.2    3.7    3.2
 4 2002-03-01 00:00:00  34.9   12.5     22.4  14.1    3.9    4.4
 5 2002-04-01 00:00:00  36.3   12.3     24    15.1    4.7    4.2
 6 2002-05-01 00:00:00  37.4   10.3     27.1  16.9    4.9    5.3
 7 2002-06-01 00:00:00  60.3   23.8     36.5  20.9    6.1    9.5
 8 2002-07-01 00:00:00  23.6    4.8     18.8  12.3    2.6    3.9
 9 2002-08-01 00:00:00  29.6    7       22.6  14.5    3.5    4.6
10 2002-09-01 00:00:00  37.2   11.8     25.4  16.9    3.6    4.9
# … with 213 more rows
# ℹ Use `print(n = ...)` to see more rows

Code

taxes<-tax_data %>%
  mutate(year = lubridate::year(Date), 
                month = lubridate::month(Date), 
                day = lubridate::day(Date))
taxes

# A tibble: 223 × 10
   Date                  tax direct indirect sales excise custom  year month
   <dttm>              <dbl>  <dbl>    <dbl> <dbl>  <dbl>  <dbl> <dbl> <dbl>
 1 2001-12-01 00:00:00  39     20.6     18.3  13.6    3.3    1.4  2001    12
 2 2002-01-01 00:00:00  32.8   13.4     19.4  12.6    3.4    3.4  2002     1
 3 2002-02-01 00:00:00  27.6    7.5     20.1  13.2    3.7    3.2  2002     2
 4 2002-03-01 00:00:00  34.9   12.5     22.4  14.1    3.9    4.4  2002     3
 5 2002-04-01 00:00:00  36.3   12.3     24    15.1    4.7    4.2  2002     4
 6 2002-05-01 00:00:00  37.4   10.3     27.1  16.9    4.9    5.3  2002     5
 7 2002-06-01 00:00:00  60.3   23.8     36.5  20.9    6.1    9.5  2002     6
 8 2002-07-01 00:00:00  23.6    4.8     18.8  12.3    2.6    3.9  2002     7
 9 2002-08-01 00:00:00  29.6    7       22.6  14.5    3.5    4.6  2002     8
10 2002-09-01 00:00:00  37.2   11.8     25.4  16.9    3.6    4.9  2002     9
# … with 213 more rows, and 1 more variable: day <int>
# ℹ Use `print(n = ...)` to see more rows, and `colnames()` to see all variable names
…
2.5 Another approach for multiple line chart

Code

df <- tax_data %>%
  select(Date, tax, direct, indirect) %>%
  gather(key = "variable", value = "value", -Date)
df

# A tibble: 669 × 3
   Date                variable value
   <dttm>              <chr>    <dbl>
 1 2001-12-01 00:00:00 tax       39  
 2 2002-01-01 00:00:00 tax       32.8
 3 2002-02-01 00:00:00 tax       27.6
 4 2002-03-01 00:00:00 tax       34.9
 5 2002-04-01 00:00:00 tax       36.3
 6 2002-05-01 00:00:00 tax       37.4
 7 2002-06-01 00:00:00 tax       60.3
 8 2002-07-01 00:00:00 tax       23.6
 9 2002-08-01 00:00:00 tax       29.6
10 2002-09-01 00:00:00 tax       37.2
# … with 659 more rows
# ℹ Use `print(n = ...)` to see more rows
…
